<?xml version="1.0" encoding="UTF-8" standalone="no"?>
<svg
   xmlns:dc="http://purl.org/dc/elements/1.1/"
   xmlns:cc="http://creativecommons.org/ns#"
   xmlns:rdf="http://www.w3.org/1999/02/22-rdf-syntax-ns#"
   xmlns:svg="http://www.w3.org/2000/svg"
   xmlns="http://www.w3.org/2000/svg"
   xmlns:sodipodi="http://sodipodi.sourceforge.net/DTD/sodipodi-0.dtd"
   xmlns:inkscape="http://www.inkscape.org/namespaces/inkscape"
   sodipodi:docname="command.svg"
   inkscape:version="1.0 (4035a4fb49, 2020-05-01)"
   id="svg8"
   version="1.1"
   viewBox="0 0 207 191"
   height="191mm"
   width="207mm">
  <defs
     id="defs2" />
  <sodipodi:namedview
     inkscape:window-maximized="1"
     inkscape:window-y="17"
     inkscape:window-x="0"
     inkscape:window-height="1059"
     inkscape:window-width="1916"
     borderlayer="false"
     showgrid="true"
     inkscape:document-rotation="0"
     inkscape:current-layer="layer1"
     inkscape:document-units="mm"
     inkscape:cy="125.3817"
     inkscape:cx="224.79851"
     inkscape:zoom="0.49497475"
     inkscape:pageshadow="2"
     inkscape:pageopacity="0.0"
     borderopacity="1.0"
     bordercolor="#666666"
     pagecolor="#ffffff"
     id="base">
    <inkscape:grid
       empspacing="2"
       spacingy="7.9375"
       spacingx="7.9375"
       id="grid833"
       type="xygrid" />
  </sodipodi:namedview>
  <metadata
     id="metadata5">
    <rdf:RDF>
      <cc:Work
         rdf:about="">
        <dc:format>image/svg+xml</dc:format>
        <dc:type
           rdf:resource="http://purl.org/dc/dcmitype/StillImage" />
        <dc:title></dc:title>
      </cc:Work>
    </rdf:RDF>
  </metadata>
  <g
     id="layer1"
     inkscape:groupmode="layer"
     inkscape:label="Layer 1">
    <g
       transform="translate(1.0859465,-16.35459)"
       id="g958">
      <g
         id="g931"
         transform="rotate(15,16.719303,510.19589)">
        <path
           sodipodi:nodetypes="cc"
           id="path877"
           d="M 63.499999,15.875 C 60.777944,77.147682 39.6875,142.875 23.8125,174.625"
           style="fill:none;stroke:#000000;stroke-width:5.29167;stroke-linecap:butt;stroke-linejoin:miter;stroke-miterlimit:4;stroke-dasharray:none;stroke-opacity:1" />
        <path
           sodipodi:nodetypes="cccsccccc"
           id="path835"
           d="m 15.875,23.8125 c 0,-7.9375 0,-7.9375 6.175334,-7.9375 H 55.5625 c 7.9375,0 9.206269,0.05069 8.237301,8.399641 C 55.5625,95.25 55.5625,95.25 63.5,166.6875 c 0,7.9375 0,7.9375 -8.109739,7.9375 H 23.8125 c -7.9375,0 -7.9375,0 -7.9375,-7.9375 7.9375,-71.4375 7.9375,-63.5 0,-142.875 z"
           style="fill:none;stroke:#000000;stroke-width:5.29167;stroke-linecap:butt;stroke-linejoin:miter;stroke-miterlimit:4;stroke-dasharray:none;stroke-opacity:1" />
        <path
           id="path875"
           d="M 63.499999,95.249999 H 15.875"
           style="fill:#ffffff;stroke:#ffffff;stroke-width:13.2292;stroke-linecap:butt;stroke-linejoin:miter;stroke-miterlimit:4;stroke-dasharray:none;stroke-opacity:1" />
        <path
           sodipodi:nodetypes="cc"
           style="fill:#ffffff;stroke:#ffffff;stroke-width:13.2292;stroke-linecap:butt;stroke-linejoin:miter;stroke-miterlimit:4;stroke-dasharray:none;stroke-opacity:1"
           d="M 21.695837,119.0625 V 71.4375"
           id="path875-3" />
        <path
           sodipodi:nodetypes="cccccc"
           id="path873"
           d="m -15.875,95.25 c 17.06623,0 23.8125,-7.937499 39.6875,0 0,-7.937499 0,-23.812499 -7.9375,-15.874999 C 7.9375,87.312501 0,103.1875 7.9375,111.125 c 7.9375,7.9375 15.875,-7.9375 15.875,-15.875 H 63.5"
           style="fill:none;stroke:#000000;stroke-width:7.9375;stroke-linecap:round;stroke-linejoin:round;stroke-miterlimit:4;stroke-dasharray:none;stroke-opacity:1" />
      </g>
      <path
         style="fill:none;stroke:#000000;stroke-width:10.5833;stroke-linecap:butt;stroke-linejoin:miter;stroke-miterlimit:4;stroke-dasharray:none;stroke-opacity:1"
         d="m 47.625,79.375 h 63.5"
         id="path896" />
      <path
         id="path896-6"
         d="m 31.75,142.875 h 63.5"
         style="fill:none;stroke:#000000;stroke-width:10.5833;stroke-linecap:butt;stroke-linejoin:miter;stroke-miterlimit:4;stroke-dasharray:none;stroke-opacity:1" />
      <path
         id="path896-7"
         d="m 15.875,174.625 h 63.5"
         style="fill:none;stroke:#000000;stroke-width:10.5833;stroke-linecap:butt;stroke-linejoin:miter;stroke-miterlimit:4;stroke-dasharray:none;stroke-opacity:1" />
      <path
         id="path896-5"
         d="m 55.5625,47.625 h 63.5"
         style="fill:none;stroke:#000000;stroke-width:10.5833;stroke-linecap:butt;stroke-linejoin:miter;stroke-miterlimit:4;stroke-dasharray:none;stroke-opacity:1" />
    </g>
  </g>
</svg>
