<?xml version="1.0" encoding="UTF-8" standalone="no"?>
<!-- Generator: Adobe Illustrator 19.0.0, SVG Export Plug-In . SVG Version: 6.00 Build 0)  -->

<svg
   inkscape:version="1.1 (c4e8f9ed74, 2021-05-24)"
   sodipodi:docname="cow.svg"
   xml:space="preserve"
   viewBox="0 0 511.999 420.00001"
   y="0px"
   x="0px"
   id="Layer_1"
   version="1.1"
   width="511.99899"
   height="420"
   xmlns:inkscape="http://www.inkscape.org/namespaces/inkscape"
   xmlns:sodipodi="http://sodipodi.sourceforge.net/DTD/sodipodi-0.dtd"
   xmlns="http://www.w3.org/2000/svg"
   xmlns:svg="http://www.w3.org/2000/svg"><defs
   id="defs970">
	

		
	</defs><sodipodi:namedview
   id="namedview968"
   pagecolor="#ffffff"
   bordercolor="#666666"
   borderopacity="1.0"
   inkscape:pageshadow="2"
   inkscape:pageopacity="0.0"
   inkscape:pagecheckerboard="0"
   showgrid="true"
   inkscape:zoom="1.2070558"
   inkscape:cx="252.26672"
   inkscape:cy="174.80551"
   inkscape:window-width="1916"
   inkscape:window-height="1057"
   inkscape:window-x="0"
   inkscape:window-y="19"
   inkscape:window-maximized="1"
   inkscape:current-layer="layer2"
   inkscape:snap-bbox="true"
   inkscape:object-paths="true"><inkscape:grid
     type="xygrid"
     id="grid1295"
     spacingx="10"
     spacingy="10"
     empspacing="2" /></sodipodi:namedview>




<g
   id="g937">
</g>
<g
   id="g939">
</g>
<g
   id="g941">
</g>
<g
   id="g943">
</g>
<g
   id="g945">
</g>
<g
   id="g947">
</g>
<g
   id="g949">
</g>
<g
   id="g951">
</g>
<g
   id="g953">
</g>
<g
   id="g955">
</g>
<g
   id="g957">
</g>
<g
   id="g959">
</g>
<g
   id="g961">
</g>
<g
   id="g963">
</g>
<g
   id="g965">
</g>
<g
   inkscape:groupmode="layer"
   id="layer2"
   inkscape:label="drawing"><g
     id="g4715"
     transform="translate(-9.44017,6.890388)"><path
       style="fill:#ffffff;fill-opacity:1;stroke:#000000;stroke-width:18.8976;stroke-linecap:butt;stroke-linejoin:round;stroke-miterlimit:4;stroke-dasharray:none;stroke-opacity:1"
       d="m 120,380 c -15.95102,-88.38443 5.65115,-101.05508 40,-88.02618 V 380 h -40"
       id="path3117"
       sodipodi:nodetypes="cccc" /><path
       style="fill:#ffffff;fill-opacity:1;stroke:#000000;stroke-width:18.8976;stroke-linecap:butt;stroke-linejoin:round;stroke-miterlimit:4;stroke-dasharray:none;stroke-opacity:1"
       d="M 370,280 V 380 H 330 C 309.16342,285.41267 311.30453,239.58188 370,280 Z"
       id="path3117-3"
       sodipodi:nodetypes="cccc" /><path
       style="fill:none;stroke:#000000;stroke-width:18.8976;stroke-linecap:round;stroke-linejoin:round;stroke-miterlimit:4;stroke-dasharray:none;stroke-opacity:1"
       d="M 130,110 C 80,110 30,120 30,190 v 50"
       id="path1386"
       sodipodi:nodetypes="ccc" /><circle
       style="fill:#ffffff;fill-opacity:1;stroke:#000000;stroke-width:18.8976;stroke-linecap:round;stroke-linejoin:round;stroke-miterlimit:4;stroke-dasharray:none"
       id="path3695"
       cx="188.08295"
       cy="269.39499"
       r="50" /><path
       style="fill:none;stroke:#000000;stroke-width:18.8976;stroke-linecap:round;stroke-linejoin:round;stroke-miterlimit:4;stroke-dasharray:none;stroke-opacity:1"
       d="m 190,320 v 30"
       id="path3930" /><path
       style="fill:none;stroke:#000000;stroke-width:18.8976;stroke-linecap:round;stroke-linejoin:round;stroke-miterlimit:4;stroke-dasharray:none;stroke-opacity:1"
       d="m 230,300 v 30"
       id="path3930-6" /><path
       style="fill:#ffffff;stroke:#000000;stroke-width:18.8976;stroke-linecap:butt;stroke-linejoin:round;stroke-miterlimit:4;stroke-dasharray:none;stroke-opacity:1"
       d="M 100,390 C 94.14039,388.31484 88.010202,377.13673 80,300 V 170 c -0.139239,-36.24941 29.84192,-43.3758 50,-60 h 210 l 70,90 c -4.65256,46.82206 -21.00251,81.02336 -70,80 v 110 h -30 c -5.47561,-5.02963 -10,-10 -20,-110 H 170 c -10,10 -23.53265,16.54296 -40,22 v 88 z"
       id="path1977"
       sodipodi:nodetypes="cccccccccccccc" /><g
       id="g3426"
       style="stroke:#000000"><rect
         style="fill:#ffffff;fill-opacity:1;stroke:#000000;stroke-width:18.8976;stroke-linecap:butt;stroke-linejoin:round;stroke-miterlimit:4;stroke-dasharray:none"
         id="rect4229"
         width="100"
         height="40"
         x="340"
         y="160"
         ry="19.441595" /><path
         style="fill:#ffffff;stroke:#000000;stroke-width:18.8976;stroke-linecap:butt;stroke-linejoin:round;stroke-miterlimit:4;stroke-dasharray:none;stroke-opacity:1"
         d="M 350,160 340,60 350,50 h 80 l 10,10 -10,100 z"
         id="path4545"
         sodipodi:nodetypes="ccccccc" /><path
         style="fill:#ffffff;stroke:#000000;stroke-width:18.8976;stroke-linecap:butt;stroke-linejoin:round;stroke-miterlimit:4;stroke-dasharray:none;stroke-opacity:1"
         d="m 270,70 c 20,30 52.45422,29.235372 70,0 -15.8721,-22.088183 -40,-30 -70,0 z"
         id="path5084"
         sodipodi:nodetypes="ccc" /><path
         style="fill:none;stroke:#000000;stroke-width:18.8976;stroke-linecap:butt;stroke-linejoin:miter;stroke-miterlimit:4;stroke-dasharray:none;stroke-opacity:1"
         d="M 360,50 340,10"
         id="path5961" /><circle
         style="fill:#000005;fill-opacity:1;stroke:#000000;stroke-width:9.4488;stroke-linecap:butt;stroke-linejoin:round;stroke-miterlimit:4;stroke-dasharray:none;paint-order:markers fill stroke"
         id="path6185"
         cx="365.77875"
         cy="91.170059"
         r="2.5" /><path
         style="fill:#ffffff;stroke:#000000;stroke-width:18.8976;stroke-linecap:butt;stroke-linejoin:round;stroke-miterlimit:4;stroke-dasharray:none;stroke-opacity:1"
         d="m 509.44017,73.109612 c -20.77235,29.470498 -53.19578,27.863308 -69.97641,-1.817872 16.44037,-21.668547 40.76561,-28.951106 69.97641,1.817872 z"
         id="path5084-7"
         sodipodi:nodetypes="ccc" /><path
         style="fill:none;stroke:#000000;stroke-width:18.8976;stroke-linecap:butt;stroke-linejoin:miter;stroke-miterlimit:4;stroke-dasharray:none;stroke-opacity:1"
         d="M 419.98989,50.779088 441.02193,11.31196"
         id="path5961-5" /><circle
         style="fill:#000000;fill-opacity:1;stroke:#000000;stroke-width:9.4488;stroke-linecap:butt;stroke-linejoin:round;stroke-miterlimit:4;stroke-dasharray:none;paint-order:markers fill stroke"
         id="path6185-3"
         cx="-415.38821"
         cy="81.025063"
         r="2.5000007"
         transform="matrix(-0.99966273,-0.02596959,-0.02596959,0.99966273,0,0)" /></g></g></g></svg>
