<?xml version="1.0" encoding="UTF-8" standalone="no"?>
<!-- Created with Inkscape (http://www.inkscape.org/) -->

<svg
   width="22.489584mm"
   height="8.437499mm"
   viewBox="0 0 22.489584 8.4374992"
   version="1.1"
   id="svg3779"
   inkscape:version="1.2.2 (b0a8486541, 2022-12-01)"
   sodipodi:docname="edge-detector.svg"
   xmlns:inkscape="http://www.inkscape.org/namespaces/inkscape"
   xmlns:sodipodi="http://sodipodi.sourceforge.net/DTD/sodipodi-0.dtd"
   xmlns="http://www.w3.org/2000/svg"
   xmlns:svg="http://www.w3.org/2000/svg">
  <sodipodi:namedview
     id="namedview3781"
     pagecolor="#ffffff"
     bordercolor="#666666"
     borderopacity="1.0"
     inkscape:showpageshadow="2"
     inkscape:pageopacity="0.0"
     inkscape:pagecheckerboard="0"
     inkscape:deskcolor="#d1d1d1"
     inkscape:document-units="mm"
     showgrid="true"
     inkscape:zoom="8.6174176"
     inkscape:cx="35.683544"
     inkscape:cy="11.778471"
     inkscape:window-width="1596"
     inkscape:window-height="876"
     inkscape:window-x="0"
     inkscape:window-y="321"
     inkscape:window-maximized="1"
     inkscape:current-layer="layer1">
    <inkscape:grid
       type="xygrid"
       id="grid5741"
       spacingx="1.3229167"
       spacingy="1.3229167"
       empspacing="2"
       originx="0"
       originy="0.24999949" />
  </sodipodi:namedview>
  <defs
     id="defs3776" />
  <g
     inkscape:label="Layer 1"
     inkscape:groupmode="layer"
     id="layer1"
     transform="translate(0,0.24999948)">
    <g
       id="g4446"
       inkscape:label="rising-edge">
      <path
         style="fill:none;stroke:#000000;stroke-width:0.5;stroke-linecap:butt;stroke-linejoin:miter;stroke-dasharray:none;stroke-opacity:1"
         d="M 10.583333,3.9687501 H 0"
         id="path1173"
         sodipodi:nodetypes="cc" />
      <rect
         style="fill:#ffffff;stroke:#000000;stroke-width:0.499999;stroke-linejoin:miter"
         id="rect946"
         width="7.9374995"
         height="7.937499"
         x="1.3229166"
         y="1.01e-06" />
      <g
         id="g4413">
        <path
           style="fill:none;stroke:#000000;stroke-width:0.3;stroke-linecap:butt;stroke-linejoin:miter;stroke-dasharray:none;stroke-opacity:1"
           d="m 3.1749993,5.2916667 1.5875001,10e-8 1.0583334,-2.6458333 h 1.9324467"
           id="path3509"
           sodipodi:nodetypes="cccc" />
        <path
           style="fill:none;stroke:#000000;stroke-width:0.264583px;stroke-linecap:butt;stroke-linejoin:miter;stroke-opacity:1"
           d="m 4.6233094,4.1414133 0.826201,-0.4978659 0.172921,0.9489868"
           id="path4353"
           sodipodi:nodetypes="ccc" />
      </g>
    </g>
    <g
       id="g4439"
       inkscape:label="falling-edge">
      <path
         style="fill:none;stroke:#000000;stroke-width:0.5;stroke-linecap:butt;stroke-linejoin:miter;stroke-dasharray:none;stroke-opacity:1"
         d="M 22.489584,3.9687491 H 11.906251"
         id="path1173-2"
         sodipodi:nodetypes="cc" />
      <rect
         style="fill:#ffffff;stroke:#000000;stroke-width:0.499999;stroke-linejoin:miter"
         id="rect946-2"
         width="7.9374995"
         height="7.937499"
         x="13.229167"
         y="9.9999999e-09" />
      <g
         id="g4417"
         transform="matrix(1,0,0,-1,0,7.9374983)">
        <path
           style="fill:none;stroke:#000000;stroke-width:0.3;stroke-linecap:butt;stroke-linejoin:miter;stroke-dasharray:none;stroke-opacity:1"
           d="m 15.08125,5.2916657 1.5875,10e-8 1.058334,-2.6458333 h 1.932446"
           id="path3509-8"
           sodipodi:nodetypes="cccc" />
        <path
           style="fill:none;stroke:#000000;stroke-width:0.264583px;stroke-linecap:butt;stroke-linejoin:miter;stroke-opacity:1"
           d="m 16.52956,4.1414123 0.826201,-0.4978659 0.172921,0.9489868"
           id="path4353-9"
           sodipodi:nodetypes="ccc" />
      </g>
    </g>
  </g>
</svg>
