<?xml version="1.0" encoding="UTF-8" standalone="no"?>
<svg
   xmlns:dc="http://purl.org/dc/elements/1.1/"
   xmlns:cc="http://creativecommons.org/ns#"
   xmlns:rdf="http://www.w3.org/1999/02/22-rdf-syntax-ns#"
   xmlns:svg="http://www.w3.org/2000/svg"
   xmlns="http://www.w3.org/2000/svg"
   xmlns:sodipodi="http://sodipodi.sourceforge.net/DTD/sodipodi-0.dtd"
   xmlns:inkscape="http://www.inkscape.org/namespaces/inkscape"
   width="173mm"
   height="169mm"
   viewBox="0 0 173 169"
   version="1.1"
   id="svg8"
   inkscape:version="1.0.2 (e86c870879, 2021-01-15)"
   sodipodi:docname="house.svg">
  <defs
     id="defs2" />
  <sodipodi:namedview
     id="base"
     pagecolor="#ffffff"
     bordercolor="#666666"
     borderopacity="1.0"
     inkscape:pageopacity="0.0"
     inkscape:pageshadow="2"
     inkscape:zoom="0.7"
     inkscape:cx="319.35756"
     inkscape:cy="197.01966"
     inkscape:document-units="mm"
     inkscape:current-layer="layer2"
     inkscape:document-rotation="0"
     showgrid="true"
     inkscape:window-width="1916"
     inkscape:window-height="1057"
     inkscape:window-x="0"
     inkscape:window-y="19"
     inkscape:window-maximized="0">
    <inkscape:grid
       type="xygrid"
       id="grid847"
       spacingx="2.6458333"
       spacingy="2.6458333"
       empspacing="2" />
  </sodipodi:namedview>
  <metadata
     id="metadata5">
    <rdf:RDF>
      <cc:Work
         rdf:about="">
        <dc:format>image/svg+xml</dc:format>
        <dc:type
           rdf:resource="http://purl.org/dc/dcmitype/StillImage" />
        <dc:title></dc:title>
      </cc:Work>
    </rdf:RDF>
  </metadata>
  <g
     inkscape:groupmode="layer"
     id="layer2"
     inkscape:label="drawing">
    <g
       id="g875"
       style="fill:#000000;stroke:#000000"
       transform="translate(1.0583333)">
      <path
         style="fill:#000000;stroke:#000000;stroke-width:0.264583px;stroke-linecap:butt;stroke-linejoin:miter;stroke-opacity:1"
         d="m 13.229167,5.2916666 -1e-6,76.7291654 H 34.395833 V 55.562499 h 15.875 V 82.020832 H 71.437499 V 42.333333 H 26.458333 V 5.2916666 Z"
         id="path868"
         sodipodi:nodetypes="ccccccccccc" />
      <path
         style="fill:#000000;stroke:#000000;stroke-width:10;stroke-linecap:round;stroke-linejoin:round;stroke-miterlimit:4;stroke-dasharray:none;stroke-opacity:1"
         d="M 42.333333,7.9374999 5.2916666,47.624999 H 79.374999 Z"
         id="path870"
         sodipodi:nodetypes="cccc" />
    </g>
    <path
       style="fill:#000000;stroke:none;stroke-width:0.264583px;stroke-linecap:butt;stroke-linejoin:miter;stroke-opacity:1"
       d="M 2.6458327,129.64583 42.333333,87.312498 82.020832,129.64583 H 68.791666 v 34.39583 H 50.270833 v -26.45833 h -15.875 v 26.45833 H 15.875 v -34.39583 z"
       id="path843"
       sodipodi:nodetypes="cccccccccccc" />
    <g
       id="g944"
       transform="translate(89.958332,-79.374995)">
      <path
         style="fill:#000000;stroke:none;stroke-width:0.264583px;stroke-linecap:butt;stroke-linejoin:miter;stroke-opacity:1"
         d="M 2.6458328,209.02083 42.333333,166.6875 82.020832,209.02083 H 68.791666 v 34.39583 H 15.875 v -34.39583 z"
         id="path843-3"
         sodipodi:nodetypes="cccccccc" />
      <rect
         style="fill:#000000;stroke:none;stroke-width:2;stroke-linecap:round;stroke-linejoin:round"
         id="rect878"
         width="13.229166"
         height="37.04166"
         x="15.875"
         y="171.97917" />
    </g>
    <g
       id="g940"
       transform="translate(5.291662,-79.374994)">
      <path
         style="fill:#000000;stroke:none;stroke-width:0.264583px;stroke-linecap:butt;stroke-linejoin:miter;stroke-opacity:1"
         d="M 87.312501,129.64583 127,87.312502 166.6875,129.64583 h -13.22916 v 34.39583 H 134.9375 v -26.45833 h -15.875 v 26.45833 h -18.52083 v -34.39583 z"
         id="path843-7"
         sodipodi:nodetypes="cccccccccccc" />
      <rect
         style="fill:#000000;stroke:none;stroke-width:2;stroke-linecap:round;stroke-linejoin:round"
         id="rect878-6-5"
         width="13.229166"
         height="37.04166"
         x="100.54167"
         y="92.604172" />
    </g>
  </g>
</svg>
