<?xml version="1.0" encoding="UTF-8" standalone="no"?>
<!-- Created with Inkscape (http://www.inkscape.org/) -->

<svg
   width="104.15931mm"
   height="147.55078mm"
   viewBox="0 0 104.15931 147.55078"
   version="1.1"
   id="svg1"
   inkscape:version="1.3.2 (091e20e, 2023-11-25, custom)"
   sodipodi:docname="trophy.svg"
   xml:space="preserve"
   xmlns:inkscape="http://www.inkscape.org/namespaces/inkscape"
   xmlns:sodipodi="http://sodipodi.sourceforge.net/DTD/sodipodi-0.dtd"
   xmlns="http://www.w3.org/2000/svg"
   xmlns:svg="http://www.w3.org/2000/svg"><sodipodi:namedview
     id="namedview1"
     pagecolor="#ffffff"
     bordercolor="#eeeeee"
     borderopacity="1"
     inkscape:showpageshadow="0"
     inkscape:pageopacity="0"
     inkscape:pagecheckerboard="true"
     inkscape:deskcolor="#505050"
     inkscape:document-units="mm"
     showgrid="true"
     inkscape:zoom="1.5839366"
     inkscape:cx="233.27954"
     inkscape:cy="123.11099"
     inkscape:window-width="3840"
     inkscape:window-height="2036"
     inkscape:window-x="-12"
     inkscape:window-y="1226"
     inkscape:window-maximized="1"
     inkscape:current-layer="layer1"><inkscape:grid
       id="grid1"
       units="mm"
       originx="2.0781501"
       originy="-2.9492073"
       spacingx="10"
       spacingy="10"
       empcolor="#0099e5"
       empopacity="0.30196078"
       color="#0099e5"
       opacity="0.14901961"
       empspacing="2"
       dotted="false"
       gridanglex="30"
       gridanglez="30"
       visible="true" /></sodipodi:namedview><defs
     id="defs1" /><g
     inkscape:label="Layer 1"
     inkscape:groupmode="layer"
     id="layer1"
     transform="translate(2.07815,-2.9492073)"><g
       id="g5"
       inkscape:label="trophy"
       transform="translate(-290.00001,99.999999)"><path
         style="fill:#b26826;fill-opacity:1;stroke:#1a1a1a;stroke-width:1;stroke-linejoin:round"
         d="M 310.00001,49.999997 H 370 v -6.824998 c -9.99999,-3.175 -19.47082,-2.305001 -19.47082,-23.175 h -21.05835 c 1e-5,20 -9.47082,20 -19.47082,23.175 z"
         id="path1"
         sodipodi:nodetypes="ccccccc"
         inkscape:label="base" /><path
         style="fill:#fdb226;fill-opacity:1;stroke:#1a1a1a;stroke-width:1"
         d="m 330,-4e-7 c 2.78217,9.9999996 3.78096,13.2039384 0,19.9999984 h 20.00002 c -3.78096,-6.79606 -2.78217,-9.9999983 0,-19.9999984 z"
         id="path2-2-0"
         sodipodi:nodetypes="ccccc" /><circle
         id="path2"
         style="fill:#ff00ff;stroke:#1a1a1a;stroke-width:0.264583"
         cx="310.36334"
         cy="-90.035439"
         r="0.04204683" /><path
         style="fill:#f9cf5a;fill-opacity:1;stroke:#1a1a1a;stroke-width:1"
         d="M 310.00001,-89.999996 C 311.84866,-65.747806 315.60312,-39.222016 330,0 h 20.00002 c 14.39688,-39.222016 18.15134,-65.747806 19.99999,-89.999996 z"
         id="path3"
         sodipodi:nodetypes="ccccc" /><ellipse
         style="fill:#fff9e1;fill-opacity:1;stroke:#1a1a1a;stroke-width:1"
         id="path4"
         cx="340"
         cy="-90.52916"
         rx="30.000002"
         ry="6.0216322" /><path
         style="fill:none;stroke:#000000;stroke-width:2.4;stroke-linecap:round;stroke-dasharray:none"
         d="m 373.80454,-77.608143 c 1.64389,1.587468 -3.89778,4.271361 -2.9529,-2.391855 0.94488,-6.663215 20.02953,-20.970302 20.02953,6.733104 0,34.519979 -21.2991,42.196067 -30,49.756955 -1.91387,1.663115 -6.33694,11.453253 0,8.58894"
         id="path5"
         sodipodi:nodetypes="czssc" /><path
         style="fill:none;stroke:#000000;stroke-width:2.4;stroke-linecap:round;stroke-dasharray:none"
         d="m 306.19849,-77.608144 c -1.64389,1.587468 3.89778,4.271361 2.9529,-2.391855 -0.94488,-6.663215 -20.02953,-20.970301 -20.02953,6.733104 0,34.519979 21.2991,42.196067 30,49.756955 1.91387,1.663115 6.33694,11.453253 0,8.58894"
         id="path5-7"
         sodipodi:nodetypes="czssc" /></g></g></svg>
